Lauren O’Brien - Playing with the Fitbit API in R
…
##   caloriesOut   max   min minutes name        
##         <dbl> <int> <int>   <int> <chr>       
## 1        0       93    30       0 Out of Range
## 2       62.1    130    93      11 Fat Burn    
## 3      230.     158   130      30 Cardio      
## 4        9.30   220   158       1 Peak        
## 
## $`activities-heart`[[1]]$value
## [1] "136.67"
## 
## 
## 
## $`activities-heart-intraday`
## $`activities-heart-intraday`$dataset
## # A tibble: 42 x 2
##    time                value
##    <S3: POSIXlt>       <int>
##  1 2018-07-30 18:47:00    99
##  2 2018-07-30 18:48:00   113
##  3 2018-07-30 18:49:00   135
##  4 2018-07-30 18:50:00   146
##  5 2018-07-30 18:51:00   153
##  6 2018-07-30 18:52:00   152
##  7 2018-07-30 18:53:00   155
##  8 2018-07-30 18:54:00   160
##  9 2018-07-30 18:55:00   152
## 10 2018-07-30 18:56:00   151
## # ... with 32 more rows
## 
## $`activities-heart-intraday`$datasetInterval
## [1] 1
## 
## $`activities-heart-intraday`$datasetType
## [1] "minute"
…
